com\epam\dfilatov\istore\db\UserDAO.class
com\epam\dfilatov\istore\web\filter\CheckAuthentificationFilter.class
com\epam\dfilatov\istore\db\CountSynchronizable.class
com\epam\dfilatov\istore\web\command\admin\DeleteElementCommand.class
com\epam\dfilatov\istore\db\OrderStatus.class
com\epam\dfilatov\istore\web\command\user\ShowCartCommand.class
com\epam\dfilatov\istore\db\OrderingDAO.class
com\epam\dfilatov\istore\web\command\user\CancelOrderCommand.class
com\epam\dfilatov\istore\web\command\ChangeLanguageCommand.class
com\epam\dfilatov\istore\db\ProducerDAO$1.class
com\epam\dfilatov\istore\web\util\SessionUtil.class
com\epam\dfilatov\istore\db\ProducerDAO.class
com\epam\dfilatov\istore\web\command\admin\ToAddElementCommand.class
com\epam\dfilatov\istore\web\listener\ContextListener.class
com\epam\dfilatov\istore\web\command\OrderedListProductsCommand.class
com\epam\dfilatov\istore\db\entity\Producer.class
com\epam\dfilatov\istore\db\entity\Account.class
com\epam\dfilatov\istore\web\command\admin\AdminCommand.class
com\epam\dfilatov\istore\web\command\admin\UpdateElementCommand.class
com\epam\dfilatov\istore\db\CategoryDAO$1.class
com\epam\dfilatov\istore\db\EntityMapper.class
com\epam\dfilatov\istore\db\UserDAO$1.class
com\epam\dfilatov\istore\web\command\user\ToAccountCommand.class
com\epam\dfilatov\istore\db\AbstractDAO.class
com\epam\dfilatov\istore\model\CartItem.class
com\epam\dfilatov\istore\web\command\CreateAccountCommand.class
com\epam\dfilatov\istore\web\Controller.class
com\epam\dfilatov\istore\db\ProducerDAO$ProducerMapper.class
com\epam\dfilatov\istore\web\command\ListProductsCommand.class
com\epam\dfilatov\istore\web\command\ToLoginCommand.class
com\epam\dfilatov\istore\db\ProductsDAO$ProductMapper.class
com\epam\dfilatov\istore\db\entity\Ordering.class
com\epam\dfilatov\istore\tag\CartAmountTag.class
com\epam\dfilatov\istore\web\command\Command.class
com\epam\dfilatov\istore\db\entity\AbstractEntity.class
com\epam\dfilatov\istore\web\util\CommandUtil.class
com\epam\dfilatov\istore\web\filter\CartFilter.class
com\epam\dfilatov\istore\web\command\user\AddProductToCartCommand.class
com\epam\dfilatov\istore\db\CategoryDAO$CategoryMapper.class
com\epam\dfilatov\istore\PathConstants.class
com\epam\dfilatov\istore\db\OrderingDAO$OrderingMapper.class
com\epam\dfilatov\istore\model\Cart.class
com\epam\dfilatov\istore\db\CategoryDAO.class
com\epam\dfilatov\istore\db\entity\Product.class
com\epam\dfilatov\istore\db\OrderingDAO$1.class
com\epam\dfilatov\istore\db\UserDAO$AccountMapper.class
com\epam\dfilatov\istore\db\AccountRole.class
com\epam\dfilatov\istore\web\command\admin\RedactorCommand.class
com\epam\dfilatov\istore\web\command\CommandContainer.class
com\epam\dfilatov\istore\web\command\NoCommand.class
com\epam\dfilatov\istore\db\ProductsDAO.class
com\epam\dfilatov\istore\web\command\LoginCommand.class
com\epam\dfilatov\istore\web\command\ToCreateAccountCommand.class
com\epam\dfilatov\istore\web\command\admin\GoToUpdateElementCommand.class
com\epam\dfilatov\istore\web\command\user\DeleteProductFromCartCommand.class
com\epam\dfilatov\istore\db\ProductsDAO$1.class
com\epam\dfilatov\istore\web\command\user\MakeOrderCommand.class
com\epam\dfilatov\istore\db\entity\Category.class
com\epam\dfilatov\istore\web\command\admin\AddElementCommand.class
com\epam\dfilatov\istore\web\command\LogoutCommand.class
com\epam\dfilatov\istore\db\DBManager.class
